<?xml version="1.0" encoding="UTF-8" standalone="no"?>
<svg
   xmlns:dc="http://purl.org/dc/elements/1.1/"
   xmlns:cc="http://creativecommons.org/ns#"
   xmlns:rdf="http://www.w3.org/1999/02/22-rdf-syntax-ns#"
   xmlns:svg="http://www.w3.org/2000/svg"
   xmlns="http://www.w3.org/2000/svg"
   xmlns:xlink="http://www.w3.org/1999/xlink"
   xmlns:sodipodi="http://sodipodi.sourceforge.net/DTD/sodipodi-0.dtd"
   xmlns:inkscape="http://www.inkscape.org/namespaces/inkscape"
   id="svg1"
   sodipodi:version="0.32"
   inkscape:version="1.0.2 (e86c870879, 2021-01-15)"
   width="493.26517"
   height="493.26517"
   sodipodi:docname="racket-ebuild-logo.svg"
   version="1.1"
   inkscape:export-filename="gentoo-package.png"
   inkscape:export-xdpi="99.650002"
   inkscape:export-ydpi="99.650002">
  <title
     id="title3153">Gentoo-Racket-package</title>
  <defs
     id="defs3">
    <linearGradient
       id="linearGradient4036">
      <stop
         style="stop-color:#7b7bdf;stop-opacity:1;"
         offset="0"
         id="stop4038" />
      <stop
         style="stop-color:#a6a6e9;stop-opacity:1;"
         offset="1"
         id="stop4040" />
    </linearGradient>
    <linearGradient
       id="linearGradient3933">
      <stop
         id="stop3935"
         offset="0.0000000"
         style="stop-color:#ffffff;stop-opacity:1.0000000;" />
      <stop
         style="stop-color:#ffffff;stop-opacity:1;"
         offset="0.48660609"
         id="stop3937" />
      <stop
         style="stop-color:#d9d9f6;stop-opacity:1;"
         offset="0.59311914"
         id="stop3939" />
      <stop
         id="stop3941"
         offset="1"
         style="stop-color:#adadeb;stop-opacity:1;" />
    </linearGradient>
    <linearGradient
       id="linearGradient3915">
      <stop
         id="stop3917"
         offset="0.0000000"
         style="stop-color:#ffffff;stop-opacity:1.0000000;" />
      <stop
         id="stop3919"
         offset="1"
         style="stop-color:#ffffff;stop-opacity:0;" />
    </linearGradient>
    <linearGradient
       id="linearGradient4049">
      <stop
         style="stop-color:#000000;stop-opacity:0.45918366;"
         offset="0.0000000"
         id="stop4050" />
      <stop
         style="stop-color:#9999e6;stop-opacity:1.0000000;"
         offset="1.0000000"
         id="stop4051" />
    </linearGradient>
    <linearGradient
       id="linearGradient2797">
      <stop
         style="stop-color:#000000;stop-opacity:1.0000000;"
         offset="0.0000000"
         id="stop2798" />
      <stop
         style="stop-color:#9999e6;stop-opacity:1.0000000;"
         offset="1.0000000"
         id="stop2799" />
    </linearGradient>
    <linearGradient
       id="linearGradient2791">
      <stop
         style="stop-color:#ffffff;stop-opacity:1.0000000;"
         offset="0.0000000"
         id="stop2792" />
      <stop
         id="stop3931"
         offset="0.30357143"
         style="stop-color:#ffffff;stop-opacity:1;" />
      <stop
         id="stop3921"
         offset="0.60714287"
         style="stop-color:#e6e6f9;stop-opacity:1;" />
      <stop
         style="stop-color:#9999e6;stop-opacity:1.0000000;"
         offset="1.0000000"
         id="stop2793" />
    </linearGradient>
    <linearGradient
       id="linearGradient2791-7">
      <stop
         id="stop2792-2"
         offset="0.0000000"
         style="stop-color:#ffffff;stop-opacity:1.0000000;" />
      <stop
         id="stop2793-7"
         offset="1"
         style="stop-color:#c0c0c0;stop-opacity:1;" />
    </linearGradient>
    <linearGradient
       id="linearGradient2797-8">
      <stop
         id="stop2798-7"
         offset="0.0000000"
         style="stop-color:#000000;stop-opacity:1.0000000;" />
      <stop
         id="stop2799-1"
         offset="1"
         style="stop-color:#c0c0c0;stop-opacity:1;" />
    </linearGradient>
    <linearGradient
       id="linearGradient4049-5">
      <stop
         id="stop4050-0"
         offset="0.0000000"
         style="stop-color:#000000;stop-opacity:0.45918366;" />
      <stop
         id="stop4051-4"
         offset="1"
         style="stop-color:#c0c0c0;stop-opacity:1;" />
    </linearGradient>
    <linearGradient
       id="linearGradient2791-5">
      <stop
         id="stop2792-6"
         offset="0.0000000"
         style="stop-color:#ffffff;stop-opacity:1.0000000;" />
      <stop
         id="stop2793-3"
         offset="1"
         style="stop-color:#c0c0c0;stop-opacity:1;" />
    </linearGradient>
    <linearGradient
       id="linearGradient2797-6">
      <stop
         id="stop2798-73"
         offset="0.0000000"
         style="stop-color:#000000;stop-opacity:1.0000000;" />
      <stop
         id="stop2799-6"
         offset="1"
         style="stop-color:#c0c0c0;stop-opacity:1;" />
    </linearGradient>
    <linearGradient
       id="linearGradient4049-59">
      <stop
         id="stop4050-7"
         offset="0.0000000"
         style="stop-color:#000000;stop-opacity:0.45918366;" />
      <stop
         id="stop4051-7"
         offset="1"
         style="stop-color:#c0c0c0;stop-opacity:1;" />
    </linearGradient>
    <radialGradient
       inkscape:collect="always"
       xlink:href="#linearGradient3933"
       id="radialGradient3135"
       cx="240.19441"
       cy="350.79166"
       fx="240.19441"
       fy="350.79166"
       r="303.34283"
       gradientTransform="matrix(0.69099478,1.0116748,-0.81542574,0.5569526,374.42974,-116.469)"
       gradientUnits="userSpaceOnUse" />
    <radialGradient
       inkscape:collect="always"
       xlink:href="#linearGradient2791"
       id="radialGradient3137"
       cx="402.91513"
       cy="273.53452"
       fx="402.91516"
       fy="273.53452"
       r="77.791382"
       gradientTransform="scale(1.0948953,0.91332936)"
       gradientUnits="userSpaceOnUse" />
    <radialGradient
       inkscape:collect="always"
       xlink:href="#linearGradient2797"
       id="radialGradient3139"
       cx="363.3147"
       cy="343.67725"
       fx="362.55896"
       fy="342.73846"
       r="35.682201"
       gradientTransform="scale(1.1116231,0.89958546)"
       gradientUnits="userSpaceOnUse" />
    <linearGradient
       inkscape:collect="always"
       xlink:href="#linearGradient4049"
       id="linearGradient3141"
       x1="192.5567"
       y1="404.65598"
       x2="234.90553"
       y2="331.94254"
       gradientTransform="matrix(0.48895157,0,0,0.41672018,208.25158,13.114791)"
       gradientUnits="userSpaceOnUse" />
    <linearGradient
       inkscape:collect="always"
       xlink:href="#linearGradient4049"
       id="linearGradient3143"
       x1="188.64751"
       y1="785.09644"
       x2="450.44757"
       y2="519.51471"
       gradientTransform="matrix(0.60861121,0,0,0.33478842,208.25158,13.114791)"
       gradientUnits="userSpaceOnUse" />
    <linearGradient
       inkscape:collect="always"
       xlink:href="#linearGradient3915"
       id="linearGradient3145"
       x1="508.15967"
       y1="428.62717"
       x2="271.03165"
       y2="659.76666"
       gradientTransform="matrix(0.54192253,0,0,0.37598728,56.26212,-125.85249)"
       gradientUnits="userSpaceOnUse" />
    <filter
       inkscape:collect="always"
       id="filter3951">
      <feGaussianBlur
         inkscape:collect="always"
         stdDeviation="1.3094535"
         id="feGaussianBlur3953" />
    </filter>
    <linearGradient
       inkscape:collect="always"
       xlink:href="#linearGradient4036"
       id="linearGradient4042"
       x1="354.16965"
       y1="83.331688"
       x2="314.37476"
       y2="322.3338"
       gradientUnits="userSpaceOnUse" />
    <radialGradient
       inkscape:collect="always"
       xlink:href="#linearGradient2797"
       id="radialGradient4049"
       gradientUnits="userSpaceOnUse"
       gradientTransform="matrix(1.5036118,-0.05644673,0.04112021,1.0953482,-156.89173,-46.745246)"
       cx="364.28299"
       cy="340.96454"
       fx="364.28299"
       fy="340.96454"
       r="35.682201" />
    <radialGradient
       inkscape:collect="always"
       xlink:href="#linearGradient2797"
       id="radialGradient3832"
       gradientUnits="userSpaceOnUse"
       gradientTransform="matrix(0.67872041,-0.02547968,0.01856139,0.49443293,137.43169,-7.9857049)"
       cx="364.28299"
       cy="340.96454"
       fx="364.28299"
       fy="340.96454"
       r="35.682201" />
    <radialGradient
       inkscape:collect="always"
       xlink:href="#linearGradient2791"
       id="radialGradient3840"
       gradientUnits="userSpaceOnUse"
       gradientTransform="matrix(0.49422849,0,0,0.41227083,208.25158,13.114791)"
       cx="402.91513"
       cy="273.53452"
       fx="402.91516"
       fy="273.53452"
       r="77.791382" />
    <radialGradient
       inkscape:collect="always"
       xlink:href="#linearGradient3933"
       id="radialGradient3845"
       gradientUnits="userSpaceOnUse"
       gradientTransform="matrix(0.31191047,0.45666331,-0.36807778,0.25140472,225.27723,-178.42582)"
       cx="240.19441"
       cy="350.79166"
       fx="240.19441"
       fy="350.79166"
       r="303.34283" />
    <linearGradient
       inkscape:collect="always"
       xlink:href="#linearGradient4036"
       id="linearGradient3848"
       gradientUnits="userSpaceOnUse"
       x1="354.16965"
       y1="83.331688"
       x2="314.37476"
       y2="322.3338"
       gradientTransform="matrix(0.45139338,0,0,0.45139338,56.26212,-125.85249)" />
    <linearGradient
       y2="609.50507"
       x2="302.85715"
       y1="366.64789"
       x1="302.85715"
       gradientTransform="matrix(2.774389,0,0,1.969706,-1892.179,-872.8854)"
       gradientUnits="userSpaceOnUse"
       id="linearGradient6715"
       xlink:href="#linearGradient5048"
       inkscape:collect="always" />
    <linearGradient
       id="linearGradient5048">
      <stop
         id="stop5050"
         offset="0"
         style="stop-color:black;stop-opacity:0;" />
      <stop
         style="stop-color:black;stop-opacity:1;"
         offset="0.5"
         id="stop5056" />
      <stop
         id="stop5052"
         offset="1"
         style="stop-color:black;stop-opacity:0;" />
    </linearGradient>
    <radialGradient
       r="117.14286"
       fy="486.64789"
       fx="605.71429"
       cy="486.64789"
       cx="605.71429"
       gradientTransform="matrix(2.774389,0,0,1.969706,-1891.633,-872.8854)"
       gradientUnits="userSpaceOnUse"
       id="radialGradient6717"
       xlink:href="#linearGradient5060"
       inkscape:collect="always" />
    <linearGradient
       id="linearGradient5060"
       inkscape:collect="always">
      <stop
         id="stop5062"
         offset="0"
         style="stop-color:black;stop-opacity:1;" />
      <stop
         id="stop5064"
         offset="1"
         style="stop-color:black;stop-opacity:0;" />
    </linearGradient>
    <radialGradient
       r="117.14286"
       fy="486.64789"
       fx="605.71429"
       cy="486.64789"
       cx="605.71429"
       gradientTransform="matrix(-2.774389,0,0,1.969706,112.7623,-872.8854)"
       gradientUnits="userSpaceOnUse"
       id="radialGradient6719"
       xlink:href="#linearGradient5060"
       inkscape:collect="always" />
    <linearGradient
       y2="22.585211"
       x2="24.990499"
       y1="34.004856"
       x1="24.990499"
       gradientUnits="userSpaceOnUse"
       id="linearGradient2288"
       xlink:href="#linearGradient4210"
       inkscape:collect="always"
       gradientTransform="matrix(10.162731,0,0,10.162731,159.42631,228.99221)" />
    <linearGradient
       id="linearGradient4210">
      <stop
         style="stop-color:#eaba6f;stop-opacity:1.0000000;"
         offset="0.0000000"
         id="stop4212" />
      <stop
         style="stop-color:#b97a1b;stop-opacity:1.0000000;"
         offset="1.0000000"
         id="stop4214" />
    </linearGradient>
    <linearGradient
       y2="47.388485"
       x2="30.014812"
       y1="19.912336"
       x1="18.706615"
       gradientUnits="userSpaceOnUse"
       id="linearGradient2285"
       xlink:href="#linearGradient4222"
       inkscape:collect="always"
       gradientTransform="matrix(10.162731,0,0,10.162731,159.42631,228.99221)" />
    <linearGradient
       id="linearGradient4222">
      <stop
         style="stop-color:#ffffff;stop-opacity:1;"
         offset="0"
         id="stop4224" />
      <stop
         style="stop-color:#ffffff;stop-opacity:0.68639052;"
         offset="1.0000000"
         id="stop4226" />
    </linearGradient>
    <linearGradient
       y2="12.636667"
       x2="34.193642"
       y1="12.636667"
       x1="16.148972"
       gradientTransform="matrix(10.162731,0,0,10.560947,159.42631,228.5799)"
       gradientUnits="userSpaceOnUse"
       id="linearGradient2280"
       xlink:href="#linearGradient4182"
       inkscape:collect="always" />
    <linearGradient
       id="linearGradient4182">
      <stop
         style="stop-color:#a36d18;stop-opacity:1.0000000;"
         offset="0.0000000"
         id="stop4184" />
      <stop
         style="stop-color:#d79020;stop-opacity:1.0000000;"
         offset="1.0000000"
         id="stop4186" />
    </linearGradient>
    <linearGradient
       y2="16.020695"
       x2="22.071806"
       y1="9.7577486"
       x1="21.906841"
       gradientUnits="userSpaceOnUse"
       id="linearGradient2282"
       xlink:href="#linearGradient4987"
       inkscape:collect="always"
       gradientTransform="matrix(10.162731,0,0,10.162731,159.42631,228.99221)" />
    <linearGradient
       inkscape:collect="always"
       id="linearGradient4987">
      <stop
         style="stop-color:#a0670c;stop-opacity:1;"
         offset="0"
         id="stop4989" />
      <stop
         style="stop-color:#a0670c;stop-opacity:0;"
         offset="1"
         id="stop4991" />
    </linearGradient>
    <linearGradient
       y2="16.17037"
       x2="24.119167"
       y1="24.720648"
       x1="25.381256"
       gradientTransform="matrix(10.162731,0,0,10.02406,159.42631,232.21003)"
       gradientUnits="userSpaceOnUse"
       id="linearGradient2277"
       xlink:href="#linearGradient4192"
       inkscape:collect="always" />
    <linearGradient
       id="linearGradient4192">
      <stop
         style="stop-color:#e9b96e;stop-opacity:1;"
         offset="0"
         id="stop4194" />
      <stop
         style="stop-color:#f1d19e;stop-opacity:1.0000000;"
         offset="1.0000000"
         id="stop4196" />
    </linearGradient>
    <linearGradient
       y2="15.267649"
       x2="47.065834"
       y1="14.661557"
       x1="36.288929"
       gradientUnits="userSpaceOnUse"
       id="linearGradient2274"
       xlink:href="#linearGradient4995"
       inkscape:collect="always"
       gradientTransform="matrix(10.162731,0,0,10.162731,159.42631,228.99221)" />
    <linearGradient
       id="linearGradient4995">
      <stop
         style="stop-color:#de9523;stop-opacity:1;"
         offset="0"
         id="stop4997" />
      <stop
         style="stop-color:#a36d18;stop-opacity:1.0000000;"
         offset="1.0000000"
         id="stop4999" />
    </linearGradient>
    <linearGradient
       id="linearGradient2869">
      <stop
         id="stop2871"
         offset="0"
         style="stop-color:#ffffff;stop-opacity:1;" />
      <stop
         id="stop2873"
         offset="1.0000000"
         style="stop-color:#cccccc;stop-opacity:1.0000000;" />
    </linearGradient>
    <linearGradient
       y2="12.333632"
       x2="17.696169"
       y1="13.444801"
       x1="30.062469"
       gradientUnits="userSpaceOnUse"
       id="linearGradient2269"
       xlink:href="#linearGradient4979"
       inkscape:collect="always"
       gradientTransform="matrix(10.162731,0,0,10.162731,159.42631,228.99221)" />
    <linearGradient
       id="linearGradient4979">
      <stop
         style="stop-color:#fbf0e0;stop-opacity:1.0000000;"
         offset="0.0000000"
         id="stop4981" />
      <stop
         style="stop-color:#f0ce99;stop-opacity:1.0000000;"
         offset="1.0000000"
         id="stop4983" />
    </linearGradient>
    <linearGradient
       inkscape:collect="always"
       xlink:href="#linearGradient4049"
       id="linearGradient1829"
       gradientUnits="userSpaceOnUse"
       gradientTransform="matrix(0.60861121,0,0,0.33478842,56.26212,-125.85249)"
       x1="188.64751"
       y1="785.09644"
       x2="450.44757"
       y2="519.51471" />
  </defs>
  <sodipodi:namedview
     units="px"
     id="base"
     pagecolor="#ffffff"
     bordercolor="#666666"
     borderopacity="1.0"
     inkscape:pageopacity="0"
     inkscape:pageshadow="2"
     inkscape:zoom="4"
     inkscape:cx="223.8588"
     inkscape:cy="386.84669"
     inkscape:window-width="1374"
     inkscape:window-height="913"
     inkscape:window-x="2083"
     inkscape:window-y="61"
     showgrid="false"
     fit-margin-top="10"
     fit-margin-left="10"
     fit-margin-right="10"
     fit-margin-bottom="10"
     inkscape:window-maximized="0"
     inkscape:current-layer="layer1"
     inkscape:document-rotation="0"
     inkscape:snap-object-midpoints="false"
     inkscape:snap-midpoints="true"
     inkscape:snap-intersection-paths="false"
     inkscape:object-nodes="false" />
  <metadata
     id="metadata4">
    <rdf:RDF>
      <cc:Work
         rdf:about="">
        <dc:format>image/svg+xml</dc:format>
        <dc:type
           rdf:resource="http://purl.org/dc/dcmitype/StillImage" />
        <dc:title>Gentoo-Racket-package</dc:title>
        <dc:creator>
          <cc:Agent>
            <dc:title>Matteo 'Peach' Pescarin, Michał Górny</dc:title>
          </cc:Agent>
        </dc:creator>
        <dc:description />
        <cc:license
           rdf:resource="http://creativecommons.org/licenses/by-sa/4.0/" />
        <dc:contributor>
          <cc:Agent>
            <dc:title>Daniel Robbins as creator of the original logo</dc:title>
          </cc:Agent>
        </dc:contributor>
        <dc:source>Gentoo Vector Logo + Tango Icon</dc:source>
      </cc:Work>
      <cc:License
         rdf:about="http://creativecommons.org/licenses/by-sa/4.0/">
        <cc:permits
           rdf:resource="http://creativecommons.org/ns#Reproduction" />
        <cc:permits
           rdf:resource="http://creativecommons.org/ns#Distribution" />
        <cc:requires
           rdf:resource="http://creativecommons.org/ns#Notice" />
        <cc:requires
           rdf:resource="http://creativecommons.org/ns#Attribution" />
        <cc:permits
           rdf:resource="http://creativecommons.org/ns#DerivativeWorks" />
        <cc:requires
           rdf:resource="http://creativecommons.org/ns#ShareAlike" />
      </cc:License>
    </rdf:RDF>
  </metadata>
  <g
     inkscape:groupmode="layer"
     id="layer1"
     inkscape:label="Logo"
     transform="translate(-151.98946,-138.96728)"
     style="display:inline">
    <g
       transform="translate(0,-26.044345)"
       id="g967">
      <g
         style="display:inline"
         transform="matrix(0.21397232,0,0,0.21207158,592.37614,588.78935)"
         id="g6707">
        <rect
           style="color:#000000;display:inline;overflow:visible;visibility:visible;opacity:0.402062;fill:url(#linearGradient6715);fill-opacity:1;fill-rule:nonzero;stroke:none;stroke-width:1;stroke-linecap:round;stroke-linejoin:miter;stroke-miterlimit:4;stroke-dasharray:none;stroke-dashoffset:0;stroke-opacity:1;marker:none;marker-start:none;marker-mid:none;marker-end:none"
           id="rect6709"
           width="1339.6335"
           height="478.35718"
           x="-1559.2523"
           y="-150.69685" />
        <path
           inkscape:connector-curvature="0"
           style="color:#000000;display:inline;overflow:visible;visibility:visible;opacity:0.402062;fill:url(#radialGradient6717);fill-opacity:1;fill-rule:nonzero;stroke:none;stroke-width:1;stroke-linecap:round;stroke-linejoin:miter;stroke-miterlimit:4;stroke-dasharray:none;stroke-dashoffset:0;stroke-opacity:1;marker:none;marker-start:none;marker-mid:none;marker-end:none"
           d="m -219.61876,-150.68038 c 0,0 0,478.33079 0,478.33079 142.874166,0.90045 345.40022,-107.16966 345.40014,-239.196175 0,-132.026537 -159.436816,-239.134595 -345.40014,-239.134615 z"
           id="path6711"
           sodipodi:nodetypes="cccc" />
        <path
           inkscape:connector-curvature="0"
           sodipodi:nodetypes="cccc"
           id="path6713"
           d="m -1559.2523,-150.68038 c 0,0 0,478.33079 0,478.33079 -142.8742,0.90045 -345.4002,-107.16966 -345.4002,-239.196175 0,-132.026537 159.4368,-239.134595 345.4002,-239.134615 z"
           style="color:#000000;display:inline;overflow:visible;visibility:visible;opacity:0.402062;fill:url(#radialGradient6719);fill-opacity:1;fill-rule:nonzero;stroke:none;stroke-width:1;stroke-linecap:round;stroke-linejoin:miter;stroke-miterlimit:4;stroke-dasharray:none;stroke-dashoffset:0;stroke-opacity:1;marker:none;marker-start:none;marker-mid:none;marker-end:none" />
      </g>
      <rect
         ry="24.334089"
         rx="24.635834"
         y="384.23218"
         x="235.26453"
         height="234.88992"
         width="324.98755"
         id="rect3115"
         style="color:#000000;display:block;overflow:visible;visibility:visible;fill:url(#linearGradient2288);fill-opacity:1;fill-rule:nonzero;stroke:#a0670c;stroke-width:10.1627;stroke-linecap:butt;stroke-linejoin:miter;stroke-miterlimit:4;stroke-dasharray:none;stroke-dashoffset:0;stroke-opacity:1;marker:none;marker-start:none;marker-mid:none;marker-end:none" />
      <rect
         style="color:#000000;display:block;overflow:visible;visibility:visible;opacity:0.481013;fill:none;fill-opacity:1;fill-rule:nonzero;stroke:url(#linearGradient2285);stroke-width:10.1627;stroke-linecap:butt;stroke-linejoin:miter;stroke-miterlimit:4;stroke-dasharray:none;stroke-dashoffset:0;stroke-opacity:1;marker:none;marker-start:none;marker-mid:none;marker-end:none"
         id="rect4220"
         width="302.89142"
         height="214.18312"
         x="245.79944"
         y="394.07239"
         rx="13.055942"
         ry="13.055942" />
      <path
         inkscape:connector-curvature="0"
         sodipodi:nodetypes="ccccc"
         id="path4162"
         d="m 248.55125,397.15653 51.32127,-69.21663 191.01422,-1.02664 53.04914,68.83847 z"
         style="fill:url(#linearGradient2280);fill-opacity:1;fill-rule:evenodd;stroke:url(#linearGradient2282);stroke-width:10.1627;stroke-linecap:butt;stroke-linejoin:miter;stroke-miterlimit:4;stroke-dasharray:none;stroke-opacity:1" />
      <path
         inkscape:connector-curvature="0"
         sodipodi:nodetypes="ccccc"
         id="path4164"
         d="m 548.41825,394.90579 52.77457,73.11739 H 199.6803 L 247.08,394.85559 Z"
         style="color:#000000;display:block;overflow:visible;visibility:visible;fill:url(#linearGradient2277);fill-opacity:1;fill-rule:nonzero;stroke:#a0670c;stroke-width:10.1627;stroke-linecap:round;stroke-linejoin:round;stroke-miterlimit:4;stroke-dasharray:none;stroke-dashoffset:0;stroke-opacity:1;marker:none;marker-start:none;marker-mid:none;marker-end:none" />
      <path
         inkscape:connector-curvature="0"
         sodipodi:nodetypes="ccccc"
         id="path4178"
         d="m 493.26522,326.69762 47.59096,70.34915 91.80614,44.56175 -82.46548,-90.57686 z"
         style="color:#000000;display:block;overflow:visible;visibility:visible;fill:url(#linearGradient2274);fill-opacity:1;fill-rule:nonzero;stroke:#a0670c;stroke-width:10.1627;stroke-linecap:round;stroke-linejoin:round;stroke-miterlimit:4;stroke-dasharray:none;stroke-dashoffset:0;stroke-opacity:1;marker:none;marker-start:none;marker-mid:none;marker-end:none" />
      <path
         inkscape:connector-curvature="0"
         sodipodi:nodetypes="ccccc"
         style="color:#000000;display:block;overflow:visible;visibility:visible;fill:#f8e8cf;fill-opacity:1;fill-rule:nonzero;stroke:#a0670c;stroke-width:10.1627;stroke-linecap:round;stroke-linejoin:round;stroke-miterlimit:4;stroke-dasharray:none;stroke-dashoffset:0;stroke-opacity:1;marker:none;marker-start:none;marker-mid:none;marker-end:none"
         d="m 297.81934,327.72415 -40.40476,68.29598 -92.83279,44.56185 82.46559,-90.57685 z"
         id="path4180" />
      <path
         inkscape:connector-curvature="0"
         style="color:#000000;display:block;overflow:visible;visibility:visible;fill:none;fill-opacity:1;fill-rule:nonzero;stroke:#f4e3ca;stroke-width:10.1627;stroke-linecap:butt;stroke-linejoin:miter;stroke-miterlimit:4;stroke-dasharray:none;stroke-dashoffset:0;stroke-opacity:1;marker:none;marker-start:none;marker-mid:none;marker-end:none"
         d="m 535.70103,396.02725 45.26388,61.55525 H 216.82829 l 42.08408,-62.80893 z"
         id="path4954"
         sodipodi:nodetypes="ccccc" />
      <path
         inkscape:connector-curvature="0"
         id="path4966"
         d="m 257.52017,395.37429 34.39403,-58.72817 208.11443,-0.76423 39.0446,59.47309 z"
         style="opacity:0.879747;fill:none;fill-opacity:1;fill-rule:evenodd;stroke:url(#linearGradient2269);stroke-width:10.1627;stroke-linecap:round;stroke-linejoin:round;stroke-miterlimit:4;stroke-dasharray:none;stroke-opacity:1" />
      <g
         transform="matrix(1.2928334,0,0,1.2928334,-115.52513,137.0601)"
         id="g1839">
        <path
           id="path919"
           style="fill:url(#linearGradient3848);fill-opacity:1;fill-rule:evenodd;stroke:none;stroke-width:0.451393"
           d="m 224.93359,-59.871094 c -16.42366,0.04866 -29.44534,5.046951 -35.67382,8.476563 -18.30181,10.077624 -31.9388,25.538021 -36.46289,35.082031 -9.29611,19.5838 -8.4472,29.074919 1.73437,41.386719 7.72776,9.34458 35.94141,24.050781 35.94141,24.050781 0,0 -4.65472,4.116625 -7.91407,6.994141 h 156.53907 c 5.28265,-8.356572 8.07839,-17.831235 4.08789,-29.802735 -7.43688,-22.3106597 -40.6543,-52.052734 -40.6543,-52.052734 0,0 -33.1134,-25.321174 -56.95898,-31.525391 -7.26668,-1.890668 -14.21203,-2.628417 -20.63868,-2.609375 z m 12.13086,68.3847659 c 1.12143,0 2.25781,0.084817 3.27344,0.3105469 2.83957,0.63102 7.18273,3.0017992 9.56445,4.3867192 -1.01488,0.39876 -2.22076,0.712644 -3.65429,0.958984 -3.69514,0.63499 -9.87774,-1.743461 -14.72657,-5.1191408 1.24674,-0.22512 3.36622,-0.5371093 5.54297,-0.5371093 z"
           transform="translate(151.98946,138.96728)"
           inkscape:connector-curvature="0" />
        <path
           id="path2165"
           style="fill:url(#radialGradient3845);fill-opacity:1;fill-rule:evenodd;stroke:none;stroke-width:0.451393"
           d="m 226.35938,-55.753906 c -0.39279,1.18e-4 -0.78067,0.004 -1.17188,0.01563 -25.03751,0.743689 -41.40039,12.892578 -41.40039,12.892578 -5.20583,4.462128 -23.30726,17.722683 -27.52149,29.001953 -4.24538,11.36264 -2.22745,20.5836931 5.95313,26.533203 8.18057,5.94951 34.20703,16.857422 34.20703,16.857422 l 12.89258,6.445313 c 0,0 -9.424,11.157624 -19.33984,19.833984 -0.11901,0.104129 -0.21476,0.190183 -0.33204,0.292969 h 126.05664 c 9.60829,-9.495629 16.24024,-16.910157 16.24024,-16.910157 0,0 7.91557,-5.205741 -0.70508,-20.863281 -8.82168,-16.0226499 -34.73394,-38.806663 -43.6582,-45.251953 -8.78483,-6.34461 -36.47545,-28.855111 -61.2207,-28.847656 z m 10.70507,64.2675779 c 1.12143,0 2.25781,0.084817 3.27344,0.3105469 2.83957,0.63102 7.18273,3.0017992 9.56445,4.3867192 -1.01488,0.39876 -2.22076,0.712644 -3.65429,0.958984 -3.69514,0.63499 -9.87774,-1.743461 -14.72657,-5.1191408 1.24674,-0.22512 3.36622,-0.5371093 5.54297,-0.5371093 z"
           transform="translate(151.98946,138.96728)"
           inkscape:connector-curvature="0" />
        <path
           inkscape:connector-curvature="0"
           id="path2166"
           d="m 383.62406,119.91815 c -9.17216,0.2479 -17.85224,9.17403 -17.60435,16.36301 0.2479,7.18899 9.42284,14.88188 9.42284,14.88188 0,0 14.12247,12.13536 27.01307,11.14377 12.89061,-0.99158 13.88035,-8.91502 13.88035,-8.91502 0,0 2.97337,-10.4172 -4.71142,-18.84567 -7.68478,-8.42846 -18.82834,-14.87586 -28.00049,-14.62797 z m 5.43082,27.56321 c 1.12143,0 2.25697,0.0846 3.2726,0.31033 2.83957,0.63102 7.18218,3.00206 9.5639,4.38698 -1.01488,0.39876 -2.21993,0.71287 -3.65346,0.95921 -3.69514,0.63499 -9.87788,-1.74481 -14.72671,-5.12049 1.24674,-0.22512 3.36692,-0.53603 5.54367,-0.53603 z"
           style="fill:url(#radialGradient3840);fill-opacity:0.75;fill-rule:evenodd;stroke:none;stroke-width:0.451393" />
        <path
           inkscape:connector-curvature="0"
           id="path2167"
           d="m 387.58785,128.84728 c -8.18057,0.12394 -11.90521,3.80877 -11.15788,10.41026 0.3261,2.88056 3.2947,6.12373 7.08124,8.75985 1.24674,-0.22512 3.36692,-0.53603 5.54367,-0.53603 1.12143,0 2.25697,0.0846 3.2726,0.31033 2.83595,0.63021 7.16613,3.00132 9.5498,4.38698 0.003,0.002 0.0111,-0.002 0.0141,0 3.81457,-1.49878 4.86426,-4.15001 4.52804,-8.46362 -0.40647,-5.21485 -10.89889,-14.99172 -18.83157,-14.86777 z m 3.724,23.23265 c 0.57793,0.20743 1.14815,0.3944 1.70683,0.55014 -0.56142,-0.15608 -1.12591,-0.34176 -1.70683,-0.55014 z m 10.46668,0.14106 c -0.17092,0.0653 -0.35434,0.12266 -0.53603,0.18338 0.1827,-0.061 0.36442,-0.11791 0.53603,-0.18338 z m -3.54061,0.91689 c -0.23095,0.0397 -0.46996,0.068 -0.71941,0.0846 0.24995,-0.0166 0.48806,-0.0449 0.71941,-0.0846 z"
           style="fill:url(#radialGradient3832);fill-opacity:0.75;fill-rule:evenodd;stroke:none;stroke-width:0.451393" />
        <path
           inkscape:connector-curvature="0"
           sodipodi:nodetypes="ccsscsc"
           id="path2168"
           d="m 302.05936,140.00141 c 0,0 1.48738,7.93268 11.65112,15.12167 10.16375,7.18899 28.99189,14.41719 38.88244,20.15088 1.89535,1.09876 2.21653,2.73047 -1.34158,5.89524 -3.40991,3.03294 -5.63562,4.95263 -5.63562,4.95263 0,0 -28.47811,-15.76796 -36.03967,-22.87774 -12.22233,-11.49206 -7.51669,-23.24268 -7.51669,-23.24268 z"
           style="fill:url(#linearGradient3141);fill-opacity:0.75;fill-rule:evenodd;stroke:none;stroke-width:0.451393" />
        <path
           id="path2169"
           style="fill:url(#linearGradient1829);fill-opacity:0.75;fill-rule:evenodd;stroke:none;stroke-width:0.451393"
           d="m 342.55273,40.759766 c 0,0 -4.98751,6.418489 -14.1875,15.359375 h 5.98047 c 5.10814,-8.181724 8.20703,-15.359375 8.20703,-15.359375 z"
           transform="translate(151.98946,138.96728)"
           inkscape:connector-curvature="0" />
        <path
           id="path3421"
           style="fill:url(#linearGradient3145);fill-opacity:1;fill-rule:evenodd;stroke:none;stroke-width:0.451393;filter:url(#filter3951)"
           d="m 335.46484,31.121094 c -1.90649,0.148489 -5.52694,3.109654 -7.6914,5.503906 -1.75208,1.938085 -11.58032,11.123723 -20.86133,19.494141 h 12.83008 c 6.4245,-5.524979 12.35947,-10.890529 15.05078,-14.148438 4.71003,-5.701608 3.38291,-9.655033 1.375,-10.730469 -0.19315,-0.103451 -0.43077,-0.140353 -0.70313,-0.11914 z"
           transform="translate(151.98946,138.96728)"
           inkscape:connector-curvature="0" />
      </g>
    </g>
    <g
       id="g963"
       transform="matrix(0.23831735,0,0,0.23831735,337.55098,452.06089)">
      <circle
         id="circle"
         fill="#ffffff"
         cx="256.25201"
         cy="255.98599"
         r="253.093" />
      <path
         id="blue-piece"
         fill="#3e5ba9"
         d="m 455.41385,412.07947 c 33.792,-43.021 53.946,-97.262 53.946,-156.211 0,-139.779 -113.313,-253.0930038 -253.093,-253.0930038 -30.406,0 -59.558,5.367 -86.566,15.1969998 102.75,53.899 238.664,229.749004 285.713,394.107004 z" />
      <path
         id="left-red-piece"
         fill="#9f1d20"
         d="M 220.003,164.337 C 180.522,121.804 136.308,88.025 89.48,65.622 36.573,112.011 3.159,180.092 3.159,255.986 3.159,319.8 26.785,378.09 65.756,422.609 100.111,319.392 164.697,219.907 220.003,164.337 Z" />
      <path
         id="bottom-red-piece"
         fill="#9f1d20"
         d="m 266.638,221.727 c -54.792,59.051 -109.392,162.422 -129.152,257.794 35.419,18.857 75.84,29.559 118.766,29.559 44.132,0 85.618,-11.306 121.74,-31.163 -20.821,-96.205 -60.124,-184.313 -111.354,-256.19 z" />
    </g>
  </g>
</svg>
